<svg xmlns="http://www.w3.org/2000/svg" xmlns:xlink="http://www.w3.org/1999/xlink" id="terminal" baseProfile="full" viewBox="0 0 640 410" width="640" version="1.1">
    <defs>
        <termtosvg:template_settings xmlns:termtosvg="https://github.com/nbedos/termtosvg">
            <termtosvg:screen_geometry columns="80" rows="24"/>
            <termtosvg:animation type="css"/>
        </termtosvg:template_settings>
        <style type="text/css" id="generated-style"><![CDATA[#screen {
                font-family: 'DejaVu Sans Mono', monospace;
                font-style: normal;
                font-size: 14px;
            }

        text {
            dominant-baseline: text-before-edge;
            white-space: pre;
        }
    
            :root {
                --animation-duration: 6066ms;
            }

            @keyframes roll {
                0.000%{transform:translateY(0px)}
1.682%{transform:translateY(-442px)}
3.412%{transform:translateY(-884px)}
3.462%{transform:translateY(-1326px)}
4.022%{transform:translateY(-1768px)}
15.480%{transform:translateY(-2210px)}
15.496%{transform:translateY(-2652px)}
15.513%{transform:translateY(-3094px)}
15.529%{transform:translateY(-3536px)}
15.546%{transform:translateY(-3978px)}
15.562%{transform:translateY(-4420px)}
15.579%{transform:translateY(-4862px)}
15.612%{transform:translateY(-5304px)}
15.628%{transform:translateY(-5746px)}
15.645%{transform:translateY(-6188px)}
15.661%{transform:translateY(-6630px)}
15.678%{transform:translateY(-7072px)}
15.694%{transform:translateY(-7514px)}
15.711%{transform:translateY(-7956px)}
15.727%{transform:translateY(-8398px)}
15.743%{transform:translateY(-8840px)}
15.760%{transform:translateY(-9282px)}
15.776%{transform:translateY(-9724px)}
15.842%{transform:translateY(-10166px)}
22.651%{transform:translateY(-10608px)}
22.700%{transform:translateY(-11050px)}
22.733%{transform:translateY(-11492px)}
22.766%{transform:translateY(-11934px)}
35.856%{transform:translateY(-12376px)}
37.718%{transform:translateY(-12818px)}
37.751%{transform:translateY(-13260px)}
37.784%{transform:translateY(-13702px)}
37.817%{transform:translateY(-14144px)}
37.850%{transform:translateY(-14586px)}
37.883%{transform:translateY(-15028px)}
37.916%{transform:translateY(-15470px)}
37.949%{transform:translateY(-15912px)}
37.982%{transform:translateY(-16354px)}
38.015%{transform:translateY(-16796px)}
38.048%{transform:translateY(-17238px)}
38.065%{transform:translateY(-17680px)}
38.098%{transform:translateY(-18122px)}
38.131%{transform:translateY(-18564px)}
38.164%{transform:translateY(-19006px)}
38.180%{transform:translateY(-19448px)}
38.213%{transform:translateY(-19890px)}
38.246%{transform:translateY(-20332px)}
38.279%{transform:translateY(-20774px)}
38.295%{transform:translateY(-21216px)}
38.328%{transform:translateY(-21658px)}
38.361%{transform:translateY(-22100px)}
38.378%{transform:translateY(-22542px)}
38.411%{transform:translateY(-22984px)}
38.427%{transform:translateY(-23426px)}
38.460%{transform:translateY(-23868px)}
38.477%{transform:translateY(-24310px)}
38.510%{transform:translateY(-24752px)}
38.543%{transform:translateY(-25194px)}
38.559%{transform:translateY(-25636px)}
38.724%{transform:translateY(-26078px)}
38.741%{transform:translateY(-26520px)}
38.773%{transform:translateY(-26962px)}
38.806%{transform:translateY(-27404px)}
38.823%{transform:translateY(-27846px)}
38.856%{transform:translateY(-28288px)}
38.872%{transform:translateY(-28730px)}
38.905%{transform:translateY(-29172px)}
38.938%{transform:translateY(-29614px)}
38.955%{transform:translateY(-30056px)}
38.988%{transform:translateY(-30498px)}
39.004%{transform:translateY(-30940px)}
39.037%{transform:translateY(-31382px)}
39.054%{transform:translateY(-31824px)}
39.087%{transform:translateY(-32266px)}
39.120%{transform:translateY(-32708px)}
39.136%{transform:translateY(-33150px)}
39.169%{transform:translateY(-33592px)}
39.186%{transform:translateY(-34034px)}
39.219%{transform:translateY(-34476px)}
39.252%{transform:translateY(-34918px)}
39.268%{transform:translateY(-35360px)}
39.301%{transform:translateY(-35802px)}
39.318%{transform:translateY(-36244px)}
39.350%{transform:translateY(-36686px)}
39.383%{transform:translateY(-37128px)}
39.416%{transform:translateY(-37570px)}
49.225%{transform:translateY(-38012px)}
49.918%{transform:translateY(-38454px)}
49.951%{transform:translateY(-38896px)}
49.984%{transform:translateY(-39338px)}
50.181%{transform:translateY(-39780px)}
83.119%{transform:translateY(-40222px)}
83.432%{transform:translateY(-40664px)}
83.515%{transform:translateY(-41106px)}
100.000%{transform:translateY(-41106px)}
            }

            #screen_view {
                animation-duration: 6066ms;
                animation-iteration-count:infinite;
                animation-name:roll;
                animation-timing-function: steps(1,end);
                animation-fill-mode: forwards;
            }
        ]]></style>
        <style type="text/css" id="user-style">
            /* The colors defined below are the default 16 colors used for rendering text of the terminal. Adjust
               them as needed.
               PowerShell colors based on https://en.wikipedia.org/wiki/ANSI_escape_code#Colors */
            .foreground {fill: #cccccc;}
            .background {fill: #0c0c0c;}
            .color0 {fill: #0c0c0c;}
            .color1 {fill: #c50f1f;}
            .color2 {fill: #13a10e;}
            .color3 {fill: #c19c00;}
            .color4 {fill: #0037da;}
            .color5 {fill: #881798;}
            .color6 {fill: #3a96dd;}
            .color7 {fill: #cccccc;}
            .color8 {fill: #767676;}
            .color9 {fill: #e74856;}
            .color10 {fill: #16c60c;}
            .color11 {fill: #f9f1a5;}
            .color12 {fill: #3b78ff;}
            .color13 {fill: #b4009e;}
            .color14 {fill: #61d6d6;}
            .color15 {fill: #f2f2f2;}
        </style>
    </defs>
    <svg id="screen" width="640" height="408" viewBox="0 0 640 408" preserveAspectRatio="xMidYMin slice">
    <rect class="background" height="100%" width="100%" x="0" y="0"/><defs><g id="g1"><text x="0" textLength="376" class="foreground">Restored session: Wed May 10 15:48:41 CEST 2023</text></g><g id="g2"><text x="0" textLength="8" class="background"> </text></g><g id="g3"><text x="0" textLength="8" class="background"> </text><text x="8" textLength="632" fill="#87ff00">                                                                               </text></g><g id="g4"><text x="0" textLength="32" fill="#af5fff">doge</text><text x="32" textLength="32" class="foreground"> in </text><text x="64" textLength="208" fill="#87ff00">~/PythonProjects/recording</text><text x="272" textLength="16" fill="#d75f00"> &#955;</text><text x="288" textLength="8" class="foreground"> </text><text x="296" textLength="8" class="background"> </text><text x="304" textLength="336" class="foreground">                                          </text></g><g id="g5"><text x="0" textLength="32" fill="#af5fff">doge</text><text x="32" textLength="32" class="foreground"> in </text><text x="64" textLength="208" fill="#87ff00">~/PythonProjects/recording</text><text x="272" textLength="16" fill="#d75f00"> &#955;</text><text x="288" textLength="16" class="foreground"> f</text><text x="304" textLength="8" class="background"> </text><text x="312" textLength="328" class="foreground">                                         </text></g><g id="g6"><text x="0" textLength="32" fill="#af5fff">doge</text><text x="32" textLength="32" class="foreground"> in </text><text x="64" textLength="208" fill="#87ff00">~/PythonProjects/recording</text><text x="272" textLength="16" fill="#d75f00"> &#955;</text><text x="288" textLength="64" class="foreground"> flask-u</text><text x="352" textLength="8" class="background"> </text><text x="360" textLength="280" class="foreground">                                   </text></g><g id="g7"><text x="0" textLength="32" fill="#af5fff">doge</text><text x="32" textLength="32" class="foreground"> in </text><text x="64" textLength="208" fill="#87ff00">~/PythonProjects/recording</text><text x="272" textLength="16" fill="#d75f00"> &#955;</text><text x="288" textLength="96" class="foreground"> flask-unsig</text><text x="384" textLength="8" class="background"> </text><text x="392" textLength="248" class="foreground">                               </text></g><g id="g8"><text x="0" textLength="32" fill="#af5fff">doge</text><text x="32" textLength="32" class="foreground"> in </text><text x="64" textLength="208" fill="#87ff00">~/PythonProjects/recording</text><text x="272" textLength="16" fill="#d75f00"> &#955;</text><text x="288" textLength="144" class="foreground"> flask-unsign -u -</text><text x="432" textLength="8" class="background"> </text><text x="440" textLength="200" class="foreground">                         </text></g><g id="g9"><text x="0" textLength="32" fill="#af5fff">doge</text><text x="32" textLength="32" class="foreground"> in </text><text x="64" textLength="208" fill="#87ff00">~/PythonProjects/recording</text><text x="272" textLength="16" fill="#d75f00"> &#955;</text><text x="288" textLength="184" class="foreground"> flask-unsign -u -c eyJ</text><text x="472" textLength="8" class="background"> </text><text x="480" textLength="160" class="foreground">                    </text></g><g id="g10"><text x="0" textLength="32" fill="#af5fff">doge</text><text x="32" textLength="32" class="foreground"> in </text><text x="64" textLength="208" fill="#87ff00">~/PythonProjects/recording</text><text x="272" textLength="16" fill="#d75f00"> &#955;</text><text x="288" textLength="216" class="foreground"> flask-unsign -u -c eyJsb2d</text><text x="504" textLength="8" class="background"> </text><text x="512" textLength="128" class="foreground">                </text></g><g id="g11"><text x="0" textLength="32" fill="#af5fff">doge</text><text x="32" textLength="32" class="foreground"> in </text><text x="64" textLength="208" fill="#87ff00">~/PythonProjects/recording</text><text x="272" textLength="16" fill="#d75f00"> &#955;</text><text x="288" textLength="248" class="foreground"> flask-unsign -u -c eyJsb2dnZWR</text><text x="536" textLength="8" class="background"> </text><text x="544" textLength="96" class="foreground">            </text></g><g id="g12"><text x="0" textLength="32" fill="#af5fff">doge</text><text x="32" textLength="32" class="foreground"> in </text><text x="64" textLength="208" fill="#87ff00">~/PythonProjects/recording</text><text x="272" textLength="16" fill="#d75f00"> &#955;</text><text x="288" textLength="280" class="foreground"> flask-unsign -u -c eyJsb2dnZWRfaW4</text><text x="568" textLength="8" class="background"> </text><text x="576" textLength="64" class="foreground">        </text></g><g id="g13"><text x="0" textLength="32" fill="#af5fff">doge</text><text x="32" textLength="32" class="foreground"> in </text><text x="64" textLength="208" fill="#87ff00">~/PythonProjects/recording</text><text x="272" textLength="16" fill="#d75f00"> &#955;</text><text x="288" textLength="312" class="foreground"> flask-unsign -u -c eyJsb2dnZWRfaW4iOmZ</text><text x="600" textLength="8" class="background"> </text><text x="608" textLength="32" class="foreground">    </text></g><g id="g14"><text x="0" textLength="32" fill="#af5fff">doge</text><text x="32" textLength="32" class="foreground"> in </text><text x="64" textLength="208" fill="#87ff00">~/PythonProjects/recording</text><text x="272" textLength="16" fill="#d75f00"> &#955;</text><text x="288" textLength="352" class="foreground"> flask-unsign -u -c eyJsb2dnZWRfaW4iOmZhbHNl</text></g><g id="g15"><text x="0" textLength="8" class="background"> </text><text x="8" textLength="632" class="foreground">                                                                               </text></g><g id="g16"><text x="0" textLength="40" class="foreground">fQ.XD</text><text x="40" textLength="8" class="background"> </text><text x="48" textLength="592" class="foreground">                                                                          </text></g><g id="g17"><text x="0" textLength="80" class="foreground">fQ.XD88aw.</text><text x="80" textLength="8" class="background"> </text><text x="88" textLength="552" class="foreground">                                                                     </text></g><g id="g18"><text x="0" textLength="96" class="foreground">fQ.XD88aw.Ah</text><text x="96" textLength="8" class="background"> </text><text x="104" textLength="536" class="foreground">                                                                   </text></g><g id="g19"><text x="0" textLength="136" class="foreground">fQ.XD88aw.AhuKIwF</text><text x="136" textLength="8" class="background"> </text><text x="144" textLength="496" class="foreground">                                                              </text></g><g id="g20"><text x="0" textLength="176" class="foreground">fQ.XD88aw.AhuKIwFPpzGD</text><text x="176" textLength="8" class="background"> </text><text x="184" textLength="456" class="foreground">                                                         </text></g><g id="g21"><text x="0" textLength="216" class="foreground">fQ.XD88aw.AhuKIwFPpzGDFLVbT</text><text x="216" textLength="8" class="background"> </text><text x="224" textLength="416" class="foreground">                                                    </text></g><g id="g22"><text x="0" textLength="256" class="foreground">fQ.XD88aw.AhuKIwFPpzGDFLVbTcsmgE</text><text x="256" textLength="8" class="background"> </text><text x="264" textLength="376" class="foreground">                                               </text></g><g id="g23"><text x="0" textLength="288" class="foreground">fQ.XD88aw.AhuKIwFPpzGDFLVbTcsmgEJu-s</text><text x="288" textLength="8" class="background"> </text><text x="296" textLength="344" class="foreground">                                           </text></g><g id="g24"><text x="0" textLength="32" fill="#af5fff">doge</text><text x="32" textLength="32" class="foreground"> in </text><text x="64" textLength="208" fill="#87ff00">~/PythonProjects/recording</text><text x="272" textLength="16" fill="#d75f00"> &#955;</text><text x="288" textLength="8" class="foreground"> </text><text x="296" textLength="344" class="background">flask-unsign -u -c eyJsb2dnZWRfaW4iOmZhbHNl</text></g><g id="g25"><text x="0" textLength="304" class="background">fQ.XD88aw.AhuKIwFPpzGDFLVbTcsmgEJu-s4 </text><text x="304" textLength="336" class="foreground">                                          </text></g><g id="g26"><text x="0" textLength="296" class="foreground">fQ.XD88aw.AhuKIwFPpzGDFLVbTcsmgEJu-s4</text><text x="296" textLength="8" class="background"> </text><text x="304" textLength="336" class="foreground">                                          </text></g><g id="g27"><text x="0" textLength="32" fill="#af5fff">doge</text><text x="32" textLength="32" class="foreground"> in </text><text x="64" textLength="208" fill="#87ff00">~/PythonProjects/recording</text><text x="272" textLength="16" fill="#d75f00"> &#955;</text><text x="288" textLength="8" class="foreground"> </text><text x="296" textLength="96" class="color2">flask-unsign</text><text x="392" textLength="248" class="foreground"> -u -c eyJsb2dnZWRfaW4iOmZhbHNl</text></g><g id="g28"><text x="0" textLength="640" class="foreground">fQ.XD88aw.AhuKIwFPpzGDFLVbTcsmgEJu-s4                                           </text></g><g id="g29"><text x="0" textLength="480" class="foreground">[*] No wordlist selected, falling back to default wordlist..</text></g><g id="g30"><text x="0" textLength="8" class="background">[</text><text x="8" textLength="344" class="foreground">*] Attempted (128):  'A terrible secret key</text></g><g id="g31"><text x="0" textLength="8" class="background">[</text><text x="8" textLength="400" class="foreground">*] Attempted (256):  + JSON.stringify(access_token</text></g><g id="g32"><text x="0" textLength="8" class="background">[</text><text x="8" textLength="400" class="foreground">*] Attempted (384):  + {{key}} +ngify(access_token</text></g><g id="g33"><text x="0" textLength="8" class="background">[</text><text x="8" textLength="400" class="foreground">*] Attempted (512):  [Token]}} +ngify(access_token</text></g><g id="g34"><text x="0" textLength="8" class="background">[</text><text x="8" textLength="400" class="foreground">*] Attempted (640): #abcde!]}} +ngify(access_token</text></g><g id="g35"><text x="0" textLength="8" class="background">[</text><text x="8" textLength="400" class="foreground">*] Attempted (768): $AWS_SECRET+ngify(access_token</text></g><g id="g36"><text x="0" textLength="8" class="background">[</text><text x="8" textLength="400" class="foreground">*] Attempted (896): %s_s3_object_bucket_0/test_11.</text></g><g id="g37"><text x="0" textLength="8" class="background">[</text><text x="8" textLength="400" class="foreground">*] Attempted (1024): &amp;lt;%= ENV[_bucket_0/test_11.</text></g><g id="g38"><text x="0" textLength="8" class="background">[</text><text x="8" textLength="400" class="foreground">*] Attempted (1152): &amp;lt;My Client Secret here_11.</text></g><g id="g39"><text x="0" textLength="8" class="background">[</text><text x="8" textLength="400" class="foreground">*] Attempted (1280): &amp;lt;consumer secret&amp;gt;re_11.</text></g><g id="g40"><text x="0" textLength="8" class="background">[</text><text x="8" textLength="400" class="foreground">*] Attempted (1408): &amp;lt;insert api keyt&amp;gt;re_11.</text></g><g id="g41"><text x="0" textLength="8" class="background">[</text><text x="8" textLength="400" class="foreground">*] Attempted (1536): &amp;lt;your-access-token&amp;gt;_11.</text></g><g id="g42"><text x="0" textLength="8" class="background">[</text><text x="8" textLength="400" class="foreground">*] Attempted (1664): ([0-9a-z-access-token&amp;gt;_11.</text></g><g id="g43"><text x="0" textLength="8" class="background">[</text><text x="8" textLength="400" class="foreground">*] Attempted (1792): **key**z-access-token&amp;gt;_11.</text></g><g id="g44"><text x="0" textLength="8" class="background">[</text><text x="8" textLength="400" class="foreground">*] Attempted (1920): +myJavascriptVariable+gt;_11.</text></g><g id="g45"><text x="0" textLength="8" class="background">[</text><text x="8" textLength="400" class="foreground">*] Attempted (2048): , client_secret,iable+gt;_11.</text></g><g id="g46"><text x="0" textLength="8" class="background">[</text><text x="8" textLength="408" class="foreground">*] Attempted (2176): -----BEGIN PRIVATE KEY-----old</text></g><g id="g47"><text x="0" textLength="8" class="background">[</text><text x="8" textLength="408" class="foreground">*] Attempted (2304): .$api_key. PRIVATE KEY-----old</text></g><g id="g48"><text x="0" textLength="8" class="background">[</text><text x="8" textLength="408" class="foreground">*] Attempted (2432): ..............................</text></g><g id="g49"><text x="0" textLength="8" class="background">[</text><text x="8" textLength="408" class="foreground">*] Attempted (2560): /api/pro/services/claims......</text></g><g id="g50"><text x="0" textLength="8" class="background">[</text><text x="8" textLength="408" class="foreground">*] Attempted (2688): /me/postsservices/claims......</text></g><g id="g51"><text x="0" textLength="8" class="background">[</text><text x="8" textLength="408" class="foreground">*] Attempted (2816): 0779eb593286b278aaf8cfcf83c8e3</text></g><g id="g52"><text x="0" textLength="8" class="background">[</text><text x="8" textLength="408" class="foreground">*] Attempted (2944): 0cgwXB2sO7JjQpz_Ho3KFg60hJSL3G</text></g><g id="g53"><text x="0" textLength="8" class="background">[</text><text x="8" textLength="408" class="foreground">*] Attempted (3072): 0fmGmyFrFDUrPGrwXR_scZZxVx6CkS</text></g><g id="g54"><text x="0" textLength="8" class="background">[</text><text x="8" textLength="408" class="foreground">*] Attempted (3200): 1/fFAGcxxxxxxxxxxxxxxxxxxx6CkS</text></g><g id="g55"><text x="0" textLength="8" class="background">[</text><text x="8" textLength="408" class="foreground">*] Attempted (3328): 123ABC890567xxxxxxxxxxxxxx6CkS</text></g><g id="g56"><text x="0" textLength="8" class="background">[</text><text x="8" textLength="408" class="foreground">*] Attempted (3456): 190731890567xxxxxxxxxxxxxx6CkS</text></g><g id="g57"><text x="0" textLength="8" class="background">[</text><text x="8" textLength="408" class="foreground">*] Attempted (3584): 2021Group467xxxxxxxxxxxxxx6CkS</text></g><g id="g58"><text x="0" textLength="8" class="background">[</text><text x="8" textLength="408" class="foreground">*] Attempted (3712): 2c1KjajSYDS6kJqzD1wJ1eGZTO2JbC</text></g><g id="g59"><text x="0" textLength="8" class="background">[</text><text x="8" textLength="408" class="foreground">*] Attempted (3840): 3190fb33-6152-4052-b95a-379b43</text></g><g id="g60"><text x="0" textLength="8" class="background">[</text><text x="8" textLength="408" class="foreground">*] Attempted (3968): 4560fb33-6152-4052-b95a-379b43</text></g><g id="g61"><text x="0" textLength="8" class="background">[</text><text x="8" textLength="408" class="foreground">*] Attempted (4096): 4ae9a193e3ce7970984625be19352f</text></g><g id="g62"><text x="0" textLength="8" class="background">[</text><text x="8" textLength="408" class="foreground">*] Attempted (4224): 52cee8ef9437e4981302c24a66e13d</text></g><g id="g63"><text x="0" textLength="8" class="background">[</text><text x="8" textLength="408" class="foreground">*] Attempted (4352): 69bbTs4LcLIRC5zEQxNxEF6FQJI92p</text></g><g id="g64"><text x="0" textLength="8" class="background">[</text><text x="8" textLength="408" class="foreground">*] Attempted (4480): 6LdiAugSAAAAAL6unDYarZoKPYHGHg</text></g><g id="g65"><text x="0" textLength="8" class="background">[</text><text x="8" textLength="408" class="foreground">*] Attempted (4608): 6ea5e2e61844608937376d514-us2g</text></g><g id="g66"><text x="0" textLength="8" class="background">[</text><text x="8" textLength="408" class="foreground">*] Attempted (4736): 88286cb21f3a9888945eb806f8abce</text></g><g id="g67"><text x="0" textLength="8" class="background">[</text><text x="8" textLength="408" class="foreground">*] Attempted (4864): 9270dbcbfe2cadc9c1464564565497</text></g><g id="g68"><text x="0" textLength="8" class="background">[</text><text x="8" textLength="408" class="foreground">*] Attempted (4992): 9acdde15b65eae424f06fd5b5e2057</text></g><g id="g69"><text x="0" textLength="8" class="background">[</text><text x="8" textLength="408" class="foreground">*] Attempted (5120): &lt;&lt;myKey&gt;&gt;65eae424f06fd5b5e2057</text></g><g id="g70"><text x="0" textLength="8" class="background">[</text><text x="8" textLength="408" class="foreground">*] Attempted (5248): &lt;MY-SECRET&gt;eae424f06fd5b5e2057</text></g><g id="g71"><text x="0" textLength="8" class="background">[</text><text x="8" textLength="408" class="foreground">*] Attempted (5376): &lt;consumer Secret&gt;f06fd5b5e2057</text></g><g id="g72"><text x="0" textLength="8" class="background">[</text><text x="8" textLength="408" class="foreground">*] Attempted (5504): &lt;your Mailgun key&gt;06fd5b5e2057</text></g><g id="g73"><text x="0" textLength="8" class="background">[</text><text x="8" textLength="408" class="foreground">*] Attempted (5632): ?api_key=xxxxx-c258-48ab-9f52-</text></g><g id="g74"><text x="0" textLength="8" class="background">[</text><text x="8" textLength="408" class="foreground">*] Attempted (5760): A93reRTUJHsCuQSHR+L3GxqOJyDmQp</text></g><g id="g75"><text x="0" textLength="8" class="background">[</text><text x="8" textLength="408" class="foreground">*] Attempted (5888): AFN123TUJHsCuQSHR+L3GxqOJyDmQp</text></g><g id="g76"><text x="0" textLength="8" class="background">[</text><text x="8" textLength="408" class="foreground">*] Attempted (6016): AIzaSyAT5pGvWOLeEuugI8asdasE7a</text></g><g id="g77"><text x="0" textLength="8" class="background">[</text><text x="8" textLength="408" class="foreground">*] Attempted (6144): AIzaSyAuJmoxZu0_A_vPMRxCwQ2Y8l</text></g><g id="g78"><text x="0" textLength="8" class="background">[</text><text x="8" textLength="408" class="foreground">*] Attempted (6272): AIzaSyBZxTMbzMOaFHau-awITz9Ctn</text></g><g id="g79"><text x="0" textLength="8" class="background">[</text><text x="8" textLength="408" class="foreground">*] Attempted (6400): AIzaSyC8HcClvIT_FlG8ZwCji4LG-q</text></g><g id="g80"><text x="0" textLength="8" class="background">[</text><text x="8" textLength="408" class="foreground">*] Attempted (6528): AIzaSyCujdl_kIpR42CEqfgC2HxXFZ</text></g><g id="g81"><text x="0" textLength="8" class="background">[</text><text x="8" textLength="408" class="foreground">*] Attempted (6656): AIzaSyDim-x5Gxxx42CEqfgC2HxXFZ</text></g><g id="g82"><text x="0" textLength="8" class="background">[</text><text x="8" textLength="408" class="foreground">*] Attempted (6784): API-SO7PMXWLYU6RPCUKMWK22GBKYQ</text></g><g id="g83"><text x="0" textLength="8" class="background">[</text><text x="8" textLength="408" class="foreground">*] Attempted (6912): AZ..SO7PMXWLYU6RPCUKMWK22GBKYQ</text></g><g id="g84"><text x="0" textLength="8" class="background">[</text><text x="8" textLength="408" class="foreground">*] Attempted (7040): AiurSentoriaKDssPCUKMWK22GBKYQ</text></g><g id="g85"><text x="0" textLength="8" class="background">[</text><text x="8" textLength="408" class="foreground">*] Attempted (7168): BaapSentoriaKDssPCUKMWK22GBKYQ</text></g><g id="g86"><text x="0" textLength="8" class="background">[</text><text x="8" textLength="408" class="foreground">*] Attempted (7296): CENSOREDoriaKDssPCUKMWK22GBKYQ</text></g><g id="g87"><text x="0" textLength="416" class="foreground">[+] Found secret key after 7296 attemptsUKMWK22GBKYQ</text></g><g id="g88"><text x="0" textLength="640" class="foreground">eyJsb2dnZWRfaW4iOmZhbHNlfQ.XD88aw.AhuKIwFPpzGDFLVbTcsmgEJu-s4 : 'CHANGEME' | 'co</text></g><g id="g89"><text x="0" textLength="104" class="foreground">okie-session'</text></g><g id="g90"><text x="0" textLength="32" fill="#af5fff">doge</text><text x="32" textLength="32" class="foreground"> in </text><text x="64" textLength="208" fill="#87ff00">~/PythonProjects/recording</text><text x="272" textLength="16" fill="#d75f00"> &#955;</text><text x="288" textLength="352" class="foreground">                                            </text></g><g id="g91"><text x="0" textLength="136" class="foreground">Saving session...</text><text x="136" textLength="8" class="background"> </text></g><g id="g92"><text x="0" textLength="216" class="foreground">Saving session...completed.</text></g></defs><g id="screen_view"><g><use xlink:href="#g1" y="0"/><rect x="0" y="17" width="8" height="17" class="foreground"/><use xlink:href="#g2" y="17"/></g><g><use xlink:href="#g1" y="442"/><rect x="0" y="459" width="8" height="17" class="foreground"/><use xlink:href="#g2" y="459"/></g><g><use xlink:href="#g1" y="884"/><rect x="0" y="901" width="8" height="17" fill="#87ff00"/><use xlink:href="#g3" y="901"/></g><g><use xlink:href="#g1" y="1326"/><rect x="0" y="1343" width="8" height="17" fill="#87ff00"/><use xlink:href="#g3" y="1343"/></g><g><use xlink:href="#g1" y="1768"/><rect x="296" y="1785" width="8" height="17" class="foreground"/><use xlink:href="#g4" y="1785"/></g><g><use xlink:href="#g1" y="2210"/><rect x="304" y="2227" width="8" height="17" class="foreground"/><use xlink:href="#g5" y="2227"/></g><g><use xlink:href="#g1" y="2652"/><rect x="352" y="2669" width="8" height="17" class="foreground"/><use xlink:href="#g6" y="2669"/></g><g><use xlink:href="#g1" y="3094"/><rect x="384" y="3111" width="8" height="17" class="foreground"/><use xlink:href="#g7" y="3111"/></g><g><use xlink:href="#g1" y="3536"/><rect x="432" y="3553" width="8" height="17" class="foreground"/><use xlink:href="#g8" y="3553"/></g><g><use xlink:href="#g1" y="3978"/><rect x="472" y="3995" width="8" height="17" class="foreground"/><use xlink:href="#g9" y="3995"/></g><g><use xlink:href="#g1" y="4420"/><rect x="504" y="4437" width="8" height="17" class="foreground"/><use xlink:href="#g10" y="4437"/></g><g><use xlink:href="#g1" y="4862"/><rect x="536" y="4879" width="8" height="17" class="foreground"/><use xlink:href="#g11" y="4879"/></g><g><use xlink:href="#g1" y="5304"/><rect x="568" y="5321" width="8" height="17" class="foreground"/><use xlink:href="#g12" y="5321"/></g><g><use xlink:href="#g1" y="5746"/><rect x="600" y="5763" width="8" height="17" class="foreground"/><use xlink:href="#g13" y="5763"/></g><g><use xlink:href="#g1" y="6188"/><use xlink:href="#g14" y="6205"/><rect x="0" y="6222" width="8" height="17" class="foreground"/><use xlink:href="#g15" y="6222"/></g><g><use xlink:href="#g1" y="6630"/><use xlink:href="#g14" y="6647"/><rect x="40" y="6664" width="8" height="17" class="foreground"/><use xlink:href="#g16" y="6664"/></g><g><use xlink:href="#g1" y="7072"/><use xlink:href="#g14" y="7089"/><rect x="80" y="7106" width="8" height="17" class="foreground"/><use xlink:href="#g17" y="7106"/></g><g><use xlink:href="#g1" y="7514"/><use xlink:href="#g14" y="7531"/><rect x="96" y="7548" width="8" height="17" class="foreground"/><use xlink:href="#g18" y="7548"/></g><g><use xlink:href="#g1" y="7956"/><use xlink:href="#g14" y="7973"/><rect x="136" y="7990" width="8" height="17" class="foreground"/><use xlink:href="#g19" y="7990"/></g><g><use xlink:href="#g1" y="8398"/><use xlink:href="#g14" y="8415"/><rect x="176" y="8432" width="8" height="17" class="foreground"/><use xlink:href="#g20" y="8432"/></g><g><use xlink:href="#g1" y="8840"/><use xlink:href="#g14" y="8857"/><rect x="216" y="8874" width="8" height="17" class="foreground"/><use xlink:href="#g21" y="8874"/></g><g><use xlink:href="#g1" y="9282"/><use xlink:href="#g14" y="9299"/><rect x="256" y="9316" width="8" height="17" class="foreground"/><use xlink:href="#g22" y="9316"/></g><g><use xlink:href="#g1" y="9724"/><use xlink:href="#g14" y="9741"/><rect x="288" y="9758" width="8" height="17" class="foreground"/><use xlink:href="#g23" y="9758"/></g><g><use xlink:href="#g1" y="10166"/><rect x="296" y="10183" width="344" height="17" class="foreground"/><use xlink:href="#g24" y="10183"/><rect x="0" y="10200" width="304" height="17" class="foreground"/><use xlink:href="#g25" y="10200"/></g><g><use xlink:href="#g1" y="10608"/><use xlink:href="#g14" y="10625"/><rect x="296" y="10642" width="8" height="17" class="foreground"/><use xlink:href="#g26" y="10642"/></g><g><use xlink:href="#g1" y="11050"/><use xlink:href="#g27" y="11067"/><rect x="296" y="11084" width="8" height="17" class="foreground"/><use xlink:href="#g26" y="11084"/></g><g><use xlink:href="#g1" y="11492"/><use xlink:href="#g27" y="11509"/><rect x="296" y="11526" width="8" height="17" class="foreground"/><use xlink:href="#g26" y="11526"/></g><g><use xlink:href="#g1" y="11934"/><use xlink:href="#g27" y="11951"/><use xlink:href="#g28" y="11968"/><rect x="0" y="11985" width="8" height="17" class="foreground"/><use xlink:href="#g2" y="11985"/></g><g><use xlink:href="#g1" y="12376"/><use xlink:href="#g27" y="12393"/><use xlink:href="#g28" y="12410"/><use xlink:href="#g29" y="12427"/><rect x="0" y="12444" width="8" height="17" class="foreground"/><use xlink:href="#g2" y="12444"/></g><g><use xlink:href="#g1" y="12818"/><use xlink:href="#g27" y="12835"/><use xlink:href="#g28" y="12852"/><use xlink:href="#g29" y="12869"/><rect x="0" y="12886" width="8" height="17" class="foreground"/><use xlink:href="#g30" y="12886"/></g><g><use xlink:href="#g1" y="13260"/><use xlink:href="#g27" y="13277"/><use xlink:href="#g28" y="13294"/><use xlink:href="#g29" y="13311"/><rect x="0" y="13328" width="8" height="17" class="foreground"/><use xlink:href="#g31" y="13328"/></g><g><use xlink:href="#g1" y="13702"/><use xlink:href="#g27" y="13719"/><use xlink:href="#g28" y="13736"/><use xlink:href="#g29" y="13753"/><rect x="0" y="13770" width="8" height="17" class="foreground"/><use xlink:href="#g32" y="13770"/></g><g><use xlink:href="#g1" y="14144"/><use xlink:href="#g27" y="14161"/><use xlink:href="#g28" y="14178"/><use xlink:href="#g29" y="14195"/><rect x="0" y="14212" width="8" height="17" class="foreground"/><use xlink:href="#g33" y="14212"/></g><g><use xlink:href="#g1" y="14586"/><use xlink:href="#g27" y="14603"/><use xlink:href="#g28" y="14620"/><use xlink:href="#g29" y="14637"/><rect x="0" y="14654" width="8" height="17" class="foreground"/><use xlink:href="#g34" y="14654"/></g><g><use xlink:href="#g1" y="15028"/><use xlink:href="#g27" y="15045"/><use xlink:href="#g28" y="15062"/><use xlink:href="#g29" y="15079"/><rect x="0" y="15096" width="8" height="17" class="foreground"/><use xlink:href="#g35" y="15096"/></g><g><use xlink:href="#g1" y="15470"/><use xlink:href="#g27" y="15487"/><use xlink:href="#g28" y="15504"/><use xlink:href="#g29" y="15521"/><rect x="0" y="15538" width="8" height="17" class="foreground"/><use xlink:href="#g36" y="15538"/></g><g><use xlink:href="#g1" y="15912"/><use xlink:href="#g27" y="15929"/><use xlink:href="#g28" y="15946"/><use xlink:href="#g29" y="15963"/><rect x="0" y="15980" width="8" height="17" class="foreground"/><use xlink:href="#g37" y="15980"/></g><g><use xlink:href="#g1" y="16354"/><use xlink:href="#g27" y="16371"/><use xlink:href="#g28" y="16388"/><use xlink:href="#g29" y="16405"/><rect x="0" y="16422" width="8" height="17" class="foreground"/><use xlink:href="#g38" y="16422"/></g><g><use xlink:href="#g1" y="16796"/><use xlink:href="#g27" y="16813"/><use xlink:href="#g28" y="16830"/><use xlink:href="#g29" y="16847"/><rect x="0" y="16864" width="8" height="17" class="foreground"/><use xlink:href="#g39" y="16864"/></g><g><use xlink:href="#g1" y="17238"/><use xlink:href="#g27" y="17255"/><use xlink:href="#g28" y="17272"/><use xlink:href="#g29" y="17289"/><rect x="0" y="17306" width="8" height="17" class="foreground"/><use xlink:href="#g40" y="17306"/></g><g><use xlink:href="#g1" y="17680"/><use xlink:href="#g27" y="17697"/><use xlink:href="#g28" y="17714"/><use xlink:href="#g29" y="17731"/><rect x="0" y="17748" width="8" height="17" class="foreground"/><use xlink:href="#g41" y="17748"/></g><g><use xlink:href="#g1" y="18122"/><use xlink:href="#g27" y="18139"/><use xlink:href="#g28" y="18156"/><use xlink:href="#g29" y="18173"/><rect x="0" y="18190" width="8" height="17" class="foreground"/><use xlink:href="#g42" y="18190"/></g><g><use xlink:href="#g1" y="18564"/><use xlink:href="#g27" y="18581"/><use xlink:href="#g28" y="18598"/><use xlink:href="#g29" y="18615"/><rect x="0" y="18632" width="8" height="17" class="foreground"/><use xlink:href="#g43" y="18632"/></g><g><use xlink:href="#g1" y="19006"/><use xlink:href="#g27" y="19023"/><use xlink:href="#g28" y="19040"/><use xlink:href="#g29" y="19057"/><rect x="0" y="19074" width="8" height="17" class="foreground"/><use xlink:href="#g44" y="19074"/></g><g><use xlink:href="#g1" y="19448"/><use xlink:href="#g27" y="19465"/><use xlink:href="#g28" y="19482"/><use xlink:href="#g29" y="19499"/><rect x="0" y="19516" width="8" height="17" class="foreground"/><use xlink:href="#g45" y="19516"/></g><g><use xlink:href="#g1" y="19890"/><use xlink:href="#g27" y="19907"/><use xlink:href="#g28" y="19924"/><use xlink:href="#g29" y="19941"/><rect x="0" y="19958" width="8" height="17" class="foreground"/><use xlink:href="#g46" y="19958"/></g><g><use xlink:href="#g1" y="20332"/><use xlink:href="#g27" y="20349"/><use xlink:href="#g28" y="20366"/><use xlink:href="#g29" y="20383"/><rect x="0" y="20400" width="8" height="17" class="foreground"/><use xlink:href="#g47" y="20400"/></g><g><use xlink:href="#g1" y="20774"/><use xlink:href="#g27" y="20791"/><use xlink:href="#g28" y="20808"/><use xlink:href="#g29" y="20825"/><rect x="0" y="20842" width="8" height="17" class="foreground"/><use xlink:href="#g48" y="20842"/></g><g><use xlink:href="#g1" y="21216"/><use xlink:href="#g27" y="21233"/><use xlink:href="#g28" y="21250"/><use xlink:href="#g29" y="21267"/><rect x="0" y="21284" width="8" height="17" class="foreground"/><use xlink:href="#g49" y="21284"/></g><g><use xlink:href="#g1" y="21658"/><use xlink:href="#g27" y="21675"/><use xlink:href="#g28" y="21692"/><use xlink:href="#g29" y="21709"/><rect x="0" y="21726" width="8" height="17" class="foreground"/><use xlink:href="#g50" y="21726"/></g><g><use xlink:href="#g1" y="22100"/><use xlink:href="#g27" y="22117"/><use xlink:href="#g28" y="22134"/><use xlink:href="#g29" y="22151"/><rect x="0" y="22168" width="8" height="17" class="foreground"/><use xlink:href="#g51" y="22168"/></g><g><use xlink:href="#g1" y="22542"/><use xlink:href="#g27" y="22559"/><use xlink:href="#g28" y="22576"/><use xlink:href="#g29" y="22593"/><rect x="0" y="22610" width="8" height="17" class="foreground"/><use xlink:href="#g52" y="22610"/></g><g><use xlink:href="#g1" y="22984"/><use xlink:href="#g27" y="23001"/><use xlink:href="#g28" y="23018"/><use xlink:href="#g29" y="23035"/><rect x="0" y="23052" width="8" height="17" class="foreground"/><use xlink:href="#g53" y="23052"/></g><g><use xlink:href="#g1" y="23426"/><use xlink:href="#g27" y="23443"/><use xlink:href="#g28" y="23460"/><use xlink:href="#g29" y="23477"/><rect x="0" y="23494" width="8" height="17" class="foreground"/><use xlink:href="#g54" y="23494"/></g><g><use xlink:href="#g1" y="23868"/><use xlink:href="#g27" y="23885"/><use xlink:href="#g28" y="23902"/><use xlink:href="#g29" y="23919"/><rect x="0" y="23936" width="8" height="17" class="foreground"/><use xlink:href="#g55" y="23936"/></g><g><use xlink:href="#g1" y="24310"/><use xlink:href="#g27" y="24327"/><use xlink:href="#g28" y="24344"/><use xlink:href="#g29" y="24361"/><rect x="0" y="24378" width="8" height="17" class="foreground"/><use xlink:href="#g56" y="24378"/></g><g><use xlink:href="#g1" y="24752"/><use xlink:href="#g27" y="24769"/><use xlink:href="#g28" y="24786"/><use xlink:href="#g29" y="24803"/><rect x="0" y="24820" width="8" height="17" class="foreground"/><use xlink:href="#g57" y="24820"/></g><g><use xlink:href="#g1" y="25194"/><use xlink:href="#g27" y="25211"/><use xlink:href="#g28" y="25228"/><use xlink:href="#g29" y="25245"/><rect x="0" y="25262" width="8" height="17" class="foreground"/><use xlink:href="#g58" y="25262"/></g><g><use xlink:href="#g1" y="25636"/><use xlink:href="#g27" y="25653"/><use xlink:href="#g28" y="25670"/><use xlink:href="#g29" y="25687"/><rect x="0" y="25704" width="8" height="17" class="foreground"/><use xlink:href="#g59" y="25704"/></g><g><use xlink:href="#g1" y="26078"/><use xlink:href="#g27" y="26095"/><use xlink:href="#g28" y="26112"/><use xlink:href="#g29" y="26129"/><rect x="0" y="26146" width="8" height="17" class="foreground"/><use xlink:href="#g60" y="26146"/></g><g><use xlink:href="#g1" y="26520"/><use xlink:href="#g27" y="26537"/><use xlink:href="#g28" y="26554"/><use xlink:href="#g29" y="26571"/><rect x="0" y="26588" width="8" height="17" class="foreground"/><use xlink:href="#g61" y="26588"/></g><g><use xlink:href="#g1" y="26962"/><use xlink:href="#g27" y="26979"/><use xlink:href="#g28" y="26996"/><use xlink:href="#g29" y="27013"/><rect x="0" y="27030" width="8" height="17" class="foreground"/><use xlink:href="#g62" y="27030"/></g><g><use xlink:href="#g1" y="27404"/><use xlink:href="#g27" y="27421"/><use xlink:href="#g28" y="27438"/><use xlink:href="#g29" y="27455"/><rect x="0" y="27472" width="8" height="17" class="foreground"/><use xlink:href="#g63" y="27472"/></g><g><use xlink:href="#g1" y="27846"/><use xlink:href="#g27" y="27863"/><use xlink:href="#g28" y="27880"/><use xlink:href="#g29" y="27897"/><rect x="0" y="27914" width="8" height="17" class="foreground"/><use xlink:href="#g64" y="27914"/></g><g><use xlink:href="#g1" y="28288"/><use xlink:href="#g27" y="28305"/><use xlink:href="#g28" y="28322"/><use xlink:href="#g29" y="28339"/><rect x="0" y="28356" width="8" height="17" class="foreground"/><use xlink:href="#g65" y="28356"/></g><g><use xlink:href="#g1" y="28730"/><use xlink:href="#g27" y="28747"/><use xlink:href="#g28" y="28764"/><use xlink:href="#g29" y="28781"/><rect x="0" y="28798" width="8" height="17" class="foreground"/><use xlink:href="#g66" y="28798"/></g><g><use xlink:href="#g1" y="29172"/><use xlink:href="#g27" y="29189"/><use xlink:href="#g28" y="29206"/><use xlink:href="#g29" y="29223"/><rect x="0" y="29240" width="8" height="17" class="foreground"/><use xlink:href="#g67" y="29240"/></g><g><use xlink:href="#g1" y="29614"/><use xlink:href="#g27" y="29631"/><use xlink:href="#g28" y="29648"/><use xlink:href="#g29" y="29665"/><rect x="0" y="29682" width="8" height="17" class="foreground"/><use xlink:href="#g68" y="29682"/></g><g><use xlink:href="#g1" y="30056"/><use xlink:href="#g27" y="30073"/><use xlink:href="#g28" y="30090"/><use xlink:href="#g29" y="30107"/><rect x="0" y="30124" width="8" height="17" class="foreground"/><use xlink:href="#g69" y="30124"/></g><g><use xlink:href="#g1" y="30498"/><use xlink:href="#g27" y="30515"/><use xlink:href="#g28" y="30532"/><use xlink:href="#g29" y="30549"/><rect x="0" y="30566" width="8" height="17" class="foreground"/><use xlink:href="#g70" y="30566"/></g><g><use xlink:href="#g1" y="30940"/><use xlink:href="#g27" y="30957"/><use xlink:href="#g28" y="30974"/><use xlink:href="#g29" y="30991"/><rect x="0" y="31008" width="8" height="17" class="foreground"/><use xlink:href="#g71" y="31008"/></g><g><use xlink:href="#g1" y="31382"/><use xlink:href="#g27" y="31399"/><use xlink:href="#g28" y="31416"/><use xlink:href="#g29" y="31433"/><rect x="0" y="31450" width="8" height="17" class="foreground"/><use xlink:href="#g72" y="31450"/></g><g><use xlink:href="#g1" y="31824"/><use xlink:href="#g27" y="31841"/><use xlink:href="#g28" y="31858"/><use xlink:href="#g29" y="31875"/><rect x="0" y="31892" width="8" height="17" class="foreground"/><use xlink:href="#g73" y="31892"/></g><g><use xlink:href="#g1" y="32266"/><use xlink:href="#g27" y="32283"/><use xlink:href="#g28" y="32300"/><use xlink:href="#g29" y="32317"/><rect x="0" y="32334" width="8" height="17" class="foreground"/><use xlink:href="#g74" y="32334"/></g><g><use xlink:href="#g1" y="32708"/><use xlink:href="#g27" y="32725"/><use xlink:href="#g28" y="32742"/><use xlink:href="#g29" y="32759"/><rect x="0" y="32776" width="8" height="17" class="foreground"/><use xlink:href="#g75" y="32776"/></g><g><use xlink:href="#g1" y="33150"/><use xlink:href="#g27" y="33167"/><use xlink:href="#g28" y="33184"/><use xlink:href="#g29" y="33201"/><rect x="0" y="33218" width="8" height="17" class="foreground"/><use xlink:href="#g76" y="33218"/></g><g><use xlink:href="#g1" y="33592"/><use xlink:href="#g27" y="33609"/><use xlink:href="#g28" y="33626"/><use xlink:href="#g29" y="33643"/><rect x="0" y="33660" width="8" height="17" class="foreground"/><use xlink:href="#g77" y="33660"/></g><g><use xlink:href="#g1" y="34034"/><use xlink:href="#g27" y="34051"/><use xlink:href="#g28" y="34068"/><use xlink:href="#g29" y="34085"/><rect x="0" y="34102" width="8" height="17" class="foreground"/><use xlink:href="#g78" y="34102"/></g><g><use xlink:href="#g1" y="34476"/><use xlink:href="#g27" y="34493"/><use xlink:href="#g28" y="34510"/><use xlink:href="#g29" y="34527"/><rect x="0" y="34544" width="8" height="17" class="foreground"/><use xlink:href="#g79" y="34544"/></g><g><use xlink:href="#g1" y="34918"/><use xlink:href="#g27" y="34935"/><use xlink:href="#g28" y="34952"/><use xlink:href="#g29" y="34969"/><rect x="0" y="34986" width="8" height="17" class="foreground"/><use xlink:href="#g80" y="34986"/></g><g><use xlink:href="#g1" y="35360"/><use xlink:href="#g27" y="35377"/><use xlink:href="#g28" y="35394"/><use xlink:href="#g29" y="35411"/><rect x="0" y="35428" width="8" height="17" class="foreground"/><use xlink:href="#g81" y="35428"/></g><g><use xlink:href="#g1" y="35802"/><use xlink:href="#g27" y="35819"/><use xlink:href="#g28" y="35836"/><use xlink:href="#g29" y="35853"/><rect x="0" y="35870" width="8" height="17" class="foreground"/><use xlink:href="#g82" y="35870"/></g><g><use xlink:href="#g1" y="36244"/><use xlink:href="#g27" y="36261"/><use xlink:href="#g28" y="36278"/><use xlink:href="#g29" y="36295"/><rect x="0" y="36312" width="8" height="17" class="foreground"/><use xlink:href="#g83" y="36312"/></g><g><use xlink:href="#g1" y="36686"/><use xlink:href="#g27" y="36703"/><use xlink:href="#g28" y="36720"/><use xlink:href="#g29" y="36737"/><rect x="0" y="36754" width="8" height="17" class="foreground"/><use xlink:href="#g84" y="36754"/></g><g><use xlink:href="#g1" y="37128"/><use xlink:href="#g27" y="37145"/><use xlink:href="#g28" y="37162"/><use xlink:href="#g29" y="37179"/><rect x="0" y="37196" width="8" height="17" class="foreground"/><use xlink:href="#g85" y="37196"/></g><g><use xlink:href="#g1" y="37570"/><use xlink:href="#g27" y="37587"/><use xlink:href="#g28" y="37604"/><use xlink:href="#g29" y="37621"/><rect x="0" y="37638" width="8" height="17" class="foreground"/><use xlink:href="#g86" y="37638"/></g><g><use xlink:href="#g1" y="38012"/><use xlink:href="#g27" y="38029"/><use xlink:href="#g28" y="38046"/><use xlink:href="#g29" y="38063"/><use xlink:href="#g87" y="38080"/><use xlink:href="#g88" y="38097"/><use xlink:href="#g89" y="38114"/><rect x="0" y="38131" width="8" height="17" class="foreground"/><use xlink:href="#g2" y="38131"/></g><g><use xlink:href="#g1" y="38454"/><use xlink:href="#g27" y="38471"/><use xlink:href="#g28" y="38488"/><use xlink:href="#g29" y="38505"/><use xlink:href="#g87" y="38522"/><use xlink:href="#g88" y="38539"/><use xlink:href="#g89" y="38556"/><rect x="0" y="38573" width="8" height="17" class="foreground"/><use xlink:href="#g15" y="38573"/></g><g><use xlink:href="#g1" y="38896"/><use xlink:href="#g27" y="38913"/><use xlink:href="#g28" y="38930"/><use xlink:href="#g29" y="38947"/><use xlink:href="#g87" y="38964"/><use xlink:href="#g88" y="38981"/><use xlink:href="#g89" y="38998"/><rect x="0" y="39015" width="8" height="17" class="foreground"/><use xlink:href="#g15" y="39015"/></g><g><use xlink:href="#g1" y="39338"/><use xlink:href="#g27" y="39355"/><use xlink:href="#g28" y="39372"/><use xlink:href="#g29" y="39389"/><use xlink:href="#g87" y="39406"/><use xlink:href="#g88" y="39423"/><use xlink:href="#g89" y="39440"/><rect x="0" y="39457" width="8" height="17" class="foreground"/><use xlink:href="#g15" y="39457"/></g><g><use xlink:href="#g1" y="39780"/><use xlink:href="#g27" y="39797"/><use xlink:href="#g28" y="39814"/><use xlink:href="#g29" y="39831"/><use xlink:href="#g87" y="39848"/><use xlink:href="#g88" y="39865"/><use xlink:href="#g89" y="39882"/><rect x="296" y="39899" width="8" height="17" class="foreground"/><use xlink:href="#g4" y="39899"/></g><g><use xlink:href="#g1" y="40222"/><use xlink:href="#g27" y="40239"/><use xlink:href="#g28" y="40256"/><use xlink:href="#g29" y="40273"/><use xlink:href="#g87" y="40290"/><use xlink:href="#g88" y="40307"/><use xlink:href="#g89" y="40324"/><use xlink:href="#g90" y="40341"/><rect x="0" y="40358" width="8" height="17" class="foreground"/><use xlink:href="#g2" y="40358"/></g><g><use xlink:href="#g1" y="40664"/><use xlink:href="#g27" y="40681"/><use xlink:href="#g28" y="40698"/><use xlink:href="#g29" y="40715"/><use xlink:href="#g87" y="40732"/><use xlink:href="#g88" y="40749"/><use xlink:href="#g89" y="40766"/><use xlink:href="#g90" y="40783"/><rect x="136" y="40817" width="8" height="17" class="foreground"/><use xlink:href="#g91" y="40817"/></g><g><use xlink:href="#g1" y="41106"/><use xlink:href="#g27" y="41123"/><use xlink:href="#g28" y="41140"/><use xlink:href="#g29" y="41157"/><use xlink:href="#g87" y="41174"/><use xlink:href="#g88" y="41191"/><use xlink:href="#g89" y="41208"/><use xlink:href="#g90" y="41225"/><use xlink:href="#g92" y="41259"/><rect x="0" y="41276" width="8" height="17" class="foreground"/><use xlink:href="#g2" y="41276"/></g></g></svg>
</svg>